Wellbeing and Lifestyle
…
3. Data wrangling

Read Wellbeing_and_lifestyle_data.csv into R and call it mydata.

mydata <- read_csv("Wellbeing_and_lifestyle_data.csv")

View the dataset. We can see there are 12,756 responses with 23 attributes.

structure(mydata)

## # A tibble: 12,756 x 23
##    Timestamp FRUITS_VEGGIES DAILY_STRESS PLACES_VISITED CORE_CIRCLE
##    <chr>              <dbl>        <dbl>          <dbl>       <dbl>
##  1 07/07/20~              3            2              2           5
##  2 07/07/20~              2            3              4           3
##  3 07/07/20~              2            3              3           4
##  4 07/07/20~              3            3             10           3
##  5 07/07/20~              5            1              3           3
##  6 07/08/20~              3            2              3           9
##  7 07/08/20~              4            2             10           6
##  8 07/09/20~              3            4              5           3
##  9 07/09/20~              5            3              6           4
## 10 07/10/20~              4            4              2           6
## # ... with 12,746 more rows, and 18 more variables: SUPPORTING_OTHERS <dbl>,
## #   SOCIAL_NETWORK <dbl>, ACHIEVEMENT <dbl>, DONATION <dbl>, BMI_RANGE <dbl>,
## #   TODO_COMPLETED <dbl>, FLOW <dbl>, DAILY_STEPS <dbl>, LIVE_VISION <dbl>,
## #   SLEEP_HOURS <dbl>, LOST_VACATION <dbl>, DAILY_SHOUTING <dbl>,
## #   SUFFICIENT_INCOME <dbl>, PERSONAL_AWARDS <dbl>, TIME_FOR_PASSION <dbl>,
## #   DAILY_MEDITATION <dbl>, AGE <chr>, GENDER <chr>
…
